\relax 
\providecommand\hyper@newdestlabel[2]{}
\providecommand\HyperFirstAtBeginDocument{\AtBeginDocument}
\HyperFirstAtBeginDocument{\ifx\hyper@anchor\@undefined
\global\let\oldcontentsline\contentsline
\gdef\contentsline#1#2#3#4{\oldcontentsline{#1}{#2}{#3}}
\global\let\oldnewlabel\newlabel
\gdef\newlabel#1#2{\newlabelxx{#1}#2}
\gdef\newlabelxx#1#2#3#4#5#6{\oldnewlabel{#1}{{#2}{#3}}}
\AtEndDocument{\ifx\hyper@anchor\@undefined
\let\contentsline\oldcontentsline
\let\newlabel\oldnewlabel
\fi}
\fi}
\global\let\hyper@last\relax 
\gdef\HyperFirstAtBeginDocument#1{#1}
\providecommand\HyField@AuxAddToFields[1]{}
\providecommand\HyField@AuxAddToCoFields[2]{}
\catcode `"\active 
\babel@aux{ngerman}{}
\@writefile{nav}{\headcommand {\slideentry {0}{0}{1}{1/1}{}{0}}}
\@writefile{nav}{\headcommand {\beamer@framepages {1}{1}}}
\@writefile{nav}{\headcommand {\slideentry {0}{0}{2}{2/2}{}{0}}}
\@writefile{nav}{\headcommand {\beamer@framepages {2}{2}}}
\@writefile{nav}{\headcommand {\slideentry {0}{0}{2}{2/3}{}{0}}}
\@writefile{nav}{\headcommand {\beamer@framepages {2}{3}}}
\@writefile{toc}{\beamer@sectionintoc {1}{Einleitung}{4}{0}{1}}
\@writefile{nav}{\headcommand {\beamer@sectionpages {1}{3}}}
\@writefile{nav}{\headcommand {\beamer@subsectionpages {1}{3}}}
\@writefile{nav}{\headcommand {\sectionentry {1}{Einleitung}{4}{Einleitung}{0}}}
\@writefile{toc}{\beamer@subsectionintoc {1}{1}{Smarte Projekte}{4}{0}{1}}
\@writefile{nav}{\headcommand {\beamer@subsectionpages {4}{3}}}
\@writefile{nav}{\headcommand {\beamer@subsectionentry {0}{1}{1}{4}{Smarte Projekte}}}
\@writefile{nav}{\headcommand {\slideentry {1}{1}{1}{4/4}{Smarte Projekte}{0}}}
\@writefile{nav}{\headcommand {\beamer@framepages {4}{4}}}
\@writefile{toc}{\beamer@subsectionintoc {1}{2}{Raspberry Pi}{5}{0}{1}}
\@writefile{nav}{\headcommand {\beamer@subsectionpages {4}{4}}}
\@writefile{nav}{\headcommand {\beamer@subsectionentry {0}{1}{2}{5}{Raspberry Pi}}}
\@writefile{nav}{\headcommand {\slideentry {1}{2}{1}{5/5}{Raspberry Pi}{0}}}
\@writefile{nav}{\headcommand {\beamer@framepages {5}{5}}}
\@writefile{toc}{\beamer@subsectionintoc {1}{3}{Smarte Projekte auf dem Raspberry Pi}{6}{0}{1}}
\@writefile{nav}{\headcommand {\beamer@subsectionpages {5}{5}}}
\@writefile{nav}{\headcommand {\beamer@subsectionentry {0}{1}{3}{6}{Smarte Projekte auf dem Raspberry Pi}}}
\@writefile{nav}{\headcommand {\slideentry {1}{3}{1}{6/7}{Smarte Projekte auf dem Raspberry Pi}{0}}}
\@writefile{nav}{\headcommand {\beamer@framepages {6}{7}}}
\@writefile{toc}{\beamer@sectionintoc {2}{Unikernel}{8}{0}{2}}
\@writefile{nav}{\headcommand {\beamer@sectionpages {4}{7}}}
\@writefile{nav}{\headcommand {\beamer@subsectionpages {6}{7}}}
\@writefile{nav}{\headcommand {\sectionentry {2}{Unikernel}{8}{Unikernel}{0}}}
\@writefile{toc}{\beamer@subsectionintoc {2}{1}{Was sind Unikernel}{8}{0}{2}}
\@writefile{nav}{\headcommand {\beamer@subsectionpages {8}{7}}}
\@writefile{nav}{\headcommand {\beamer@subsectionentry {0}{2}{1}{8}{Was sind Unikernel}}}
\@writefile{nav}{\headcommand {\slideentry {2}{1}{1}{8/8}{Was sind Unikernel}{0}}}
\@writefile{nav}{\headcommand {\beamer@framepages {8}{8}}}
\@writefile{toc}{\beamer@subsectionintoc {2}{2}{Ein Adress Maschinen}{9}{0}{2}}
\@writefile{nav}{\headcommand {\beamer@subsectionpages {8}{8}}}
\@writefile{nav}{\headcommand {\beamer@subsectionentry {0}{2}{2}{9}{Ein Adress Maschinen}}}
\@writefile{nav}{\headcommand {\slideentry {2}{2}{1}{9/9}{Ein Adress Maschinen}{0}}}
\@writefile{nav}{\headcommand {\beamer@framepages {9}{9}}}
\@writefile{nav}{\headcommand {\slideentry {2}{2}{2}{10/10}{Ein Adress Maschinen}{0}}}
\@writefile{nav}{\headcommand {\beamer@framepages {10}{10}}}
\@writefile{toc}{\beamer@subsectionintoc {2}{3}{Arten von Unikernelen}{11}{0}{2}}
\@writefile{nav}{\headcommand {\beamer@subsectionpages {9}{10}}}
\@writefile{nav}{\headcommand {\beamer@subsectionentry {0}{2}{3}{11}{Arten von Unikernelen}}}
\@writefile{nav}{\headcommand {\slideentry {2}{3}{1}{11/11}{Arten von Unikernelen}{0}}}
\@writefile{nav}{\headcommand {\beamer@framepages {11}{11}}}
\@writefile{toc}{\beamer@subsectionintoc {2}{4}{Bibliotheks Betriebssystem}{12}{0}{2}}
\@writefile{nav}{\headcommand {\beamer@subsectionpages {11}{11}}}
\@writefile{nav}{\headcommand {\beamer@subsectionentry {0}{2}{4}{12}{Bibliotheks Betriebssystem}}}
\@writefile{nav}{\headcommand {\slideentry {2}{4}{1}{12/12}{Bibliotheks Betriebssystem}{0}}}
\@writefile{nav}{\headcommand {\beamer@framepages {12}{12}}}
\@writefile{nav}{\headcommand {\slideentry {2}{4}{2}{13/13}{Bibliotheks Betriebssystem}{0}}}
\@writefile{nav}{\headcommand {\beamer@framepages {13}{13}}}
\@writefile{nav}{\headcommand {\slideentry {2}{4}{3}{14/14}{Bibliotheks Betriebssystem}{0}}}
\@writefile{nav}{\headcommand {\beamer@framepages {14}{14}}}
\@writefile{toc}{\beamer@subsectionintoc {2}{5}{Vor- und Nachteile}{15}{0}{2}}
\@writefile{nav}{\headcommand {\beamer@subsectionpages {12}{14}}}
\@writefile{nav}{\headcommand {\beamer@subsectionentry {0}{2}{5}{15}{Vor- und Nachteile}}}
\@writefile{toc}{\beamer@subsubsectionintoc {2}{5}{1}{Vorteile}{15}{0}{2}}
\@writefile{nav}{\headcommand {\beamer@subsubsectionentry {0}{2}{5}{1}{15}{Vorteile}}}
\@writefile{nav}{\headcommand {\slideentry {2}{5}{1}{15/15}{Vor- und Nachteile}{0}}}
\@writefile{nav}{\headcommand {\beamer@framepages {15}{15}}}
\@writefile{toc}{\beamer@subsubsectionintoc {2}{5}{2}{Nachteile}{16}{0}{2}}
\@writefile{nav}{\headcommand {\beamer@subsubsectionentry {0}{2}{5}{2}{16}{Nachteile}}}
\@writefile{nav}{\headcommand {\slideentry {2}{5}{2}{16/16}{Vor- und Nachteile}{0}}}
\@writefile{nav}{\headcommand {\beamer@framepages {16}{16}}}
\@writefile{toc}{\beamer@subsectionintoc {2}{6}{Technologien im Vergleich}{17}{0}{2}}
\@writefile{nav}{\headcommand {\beamer@subsectionpages {15}{16}}}
\@writefile{nav}{\headcommand {\beamer@subsectionentry {0}{2}{6}{17}{Technologien im Vergleich}}}
\@writefile{toc}{\beamer@subsubsectionintoc {2}{6}{1}{Virtuelle Maschinen}{17}{0}{2}}
\@writefile{nav}{\headcommand {\beamer@subsubsectionentry {0}{2}{6}{1}{17}{Virtuelle Maschinen}}}
\@writefile{nav}{\headcommand {\slideentry {2}{6}{1}{17/17}{Technologien im Vergleich}{0}}}
\@writefile{nav}{\headcommand {\beamer@framepages {17}{17}}}
\@writefile{nav}{\headcommand {\slideentry {2}{6}{2}{18/18}{Technologien im Vergleich}{0}}}
\@writefile{nav}{\headcommand {\beamer@framepages {18}{18}}}
\@writefile{toc}{\beamer@subsubsectionintoc {2}{6}{2}{Linux Container}{19}{0}{2}}
\@writefile{nav}{\headcommand {\beamer@subsubsectionentry {0}{2}{6}{2}{19}{Linux Container}}}
\@writefile{nav}{\headcommand {\slideentry {2}{6}{3}{19/19}{Technologien im Vergleich}{0}}}
\@writefile{nav}{\headcommand {\beamer@framepages {19}{19}}}
\@writefile{nav}{\headcommand {\slideentry {2}{6}{4}{20/20}{Technologien im Vergleich}{0}}}
\@writefile{nav}{\headcommand {\beamer@framepages {20}{20}}}
\@writefile{toc}{\beamer@subsubsectionintoc {2}{6}{3}{Unikernel}{21}{0}{2}}
\@writefile{nav}{\headcommand {\beamer@subsubsectionentry {0}{2}{6}{3}{21}{Unikernel}}}
\@writefile{nav}{\headcommand {\slideentry {2}{6}{5}{21/21}{Technologien im Vergleich}{0}}}
\@writefile{nav}{\headcommand {\beamer@framepages {21}{21}}}
\@writefile{nav}{\headcommand {\slideentry {2}{6}{6}{22/22}{Technologien im Vergleich}{0}}}
\@writefile{nav}{\headcommand {\beamer@framepages {22}{22}}}
\@writefile{nav}{\headcommand {\slideentry {2}{6}{7}{23/23}{Technologien im Vergleich}{0}}}
\@writefile{nav}{\headcommand {\beamer@framepages {23}{23}}}
\@writefile{toc}{\beamer@sectionintoc {3}{GoKrazy}{24}{0}{3}}
\@writefile{nav}{\headcommand {\beamer@sectionpages {8}{23}}}
\@writefile{nav}{\headcommand {\beamer@subsectionpages {17}{23}}}
\@writefile{nav}{\headcommand {\sectionentry {3}{GoKrazy}{24}{GoKrazy}{0}}}
\@writefile{toc}{\beamer@subsectionintoc {3}{1}{Was ist GoKrazy}{24}{0}{3}}
\@writefile{nav}{\headcommand {\beamer@subsectionpages {24}{23}}}
\@writefile{nav}{\headcommand {\beamer@subsectionentry {0}{3}{1}{24}{Was ist GoKrazy}}}
\@writefile{nav}{\headcommand {\slideentry {3}{1}{1}{24/24}{Was ist GoKrazy}{0}}}
\@writefile{nav}{\headcommand {\beamer@framepages {24}{24}}}
\@writefile{toc}{\beamer@subsectionintoc {3}{2}{Wie funktioniert GoKrazy}{25}{0}{3}}
\@writefile{nav}{\headcommand {\beamer@subsectionpages {24}{24}}}
\@writefile{nav}{\headcommand {\beamer@subsectionentry {0}{3}{2}{25}{Wie funktioniert GoKrazy}}}
\@writefile{toc}{\beamer@subsubsectionintoc {3}{2}{1}{Toolchain}{25}{0}{3}}
\@writefile{nav}{\headcommand {\beamer@subsubsectionentry {0}{3}{2}{1}{25}{Toolchain}}}
\@writefile{nav}{\headcommand {\slideentry {3}{2}{1}{25/25}{Wie funktioniert GoKrazy}{0}}}
\@writefile{nav}{\headcommand {\beamer@framepages {25}{25}}}
\@writefile{toc}{\beamer@subsubsectionintoc {3}{2}{2}{Dateisysteme}{26}{0}{3}}
\@writefile{nav}{\headcommand {\beamer@subsubsectionentry {0}{3}{2}{2}{26}{Dateisysteme}}}
\@writefile{nav}{\headcommand {\slideentry {3}{2}{2}{26/26}{Wie funktioniert GoKrazy}{0}}}
\@writefile{nav}{\headcommand {\beamer@framepages {26}{26}}}
\@writefile{nav}{\headcommand {\slideentry {3}{2}{3}{27/27}{Wie funktioniert GoKrazy}{0}}}
\@writefile{nav}{\headcommand {\beamer@framepages {27}{27}}}
\@writefile{toc}{\beamer@subsubsectionintoc {3}{2}{3}{Boot}{28}{0}{3}}
\@writefile{nav}{\headcommand {\beamer@subsubsectionentry {0}{3}{2}{3}{28}{Boot}}}
\@writefile{nav}{\headcommand {\slideentry {3}{2}{4}{28/28}{Wie funktioniert GoKrazy}{0}}}
\@writefile{nav}{\headcommand {\beamer@framepages {28}{28}}}
\@writefile{toc}{\beamer@subsubsectionintoc {3}{2}{4}{Initialisierungs System}{29}{0}{3}}
\@writefile{nav}{\headcommand {\beamer@subsubsectionentry {0}{3}{2}{4}{29}{Initialisierungs System}}}
\@writefile{nav}{\headcommand {\slideentry {3}{2}{5}{29/29}{Wie funktioniert GoKrazy}{0}}}
\@writefile{nav}{\headcommand {\beamer@framepages {29}{29}}}
\@writefile{toc}{\beamer@subsubsectionintoc {3}{2}{5}{Userland}{30}{0}{3}}
\@writefile{nav}{\headcommand {\beamer@subsubsectionentry {0}{3}{2}{5}{30}{Userland}}}
\@writefile{nav}{\headcommand {\slideentry {3}{2}{6}{30/30}{Wie funktioniert GoKrazy}{0}}}
\@writefile{nav}{\headcommand {\beamer@framepages {30}{30}}}
\@writefile{toc}{\beamer@subsubsectionintoc {3}{2}{6}{Webinterface}{31}{0}{3}}
\@writefile{nav}{\headcommand {\beamer@subsubsectionentry {0}{3}{2}{6}{31}{Webinterface}}}
\@writefile{nav}{\headcommand {\slideentry {3}{2}{7}{31/31}{Wie funktioniert GoKrazy}{0}}}
\@writefile{nav}{\headcommand {\beamer@framepages {31}{31}}}
\@writefile{toc}{\beamer@subsubsectionintoc {3}{2}{7}{Aktualisierungen \IeC {\"u}ber das Netzwerk}{32}{0}{3}}
\@writefile{nav}{\headcommand {\beamer@subsubsectionentry {0}{3}{2}{7}{32}{Aktualisierungen \IeC {\"u}ber das Netzwerk}}}
\@writefile{nav}{\headcommand {\slideentry {3}{2}{8}{32/32}{Wie funktioniert GoKrazy}{0}}}
\@writefile{nav}{\headcommand {\beamer@framepages {32}{32}}}
\@writefile{toc}{\beamer@subsubsectionintoc {3}{2}{8}{Kernel Konfiguration}{33}{0}{3}}
\@writefile{nav}{\headcommand {\beamer@subsubsectionentry {0}{3}{2}{8}{33}{Kernel Konfiguration}}}
\@writefile{nav}{\headcommand {\slideentry {3}{2}{9}{33/33}{Wie funktioniert GoKrazy}{0}}}
\@writefile{nav}{\headcommand {\beamer@framepages {33}{33}}}
\@writefile{toc}{\beamer@subsubsectionintoc {3}{2}{9}{Debugging}{34}{0}{3}}
\@writefile{nav}{\headcommand {\beamer@subsubsectionentry {0}{3}{2}{9}{34}{Debugging}}}
\@writefile{nav}{\headcommand {\slideentry {3}{2}{10}{34/34}{Wie funktioniert GoKrazy}{0}}}
\@writefile{nav}{\headcommand {\beamer@framepages {34}{34}}}
\@writefile{toc}{\beamer@sectionintoc {4}{Raspbian vs. GoKrazy}{35}{0}{4}}
\@writefile{nav}{\headcommand {\beamer@sectionpages {24}{34}}}
\@writefile{nav}{\headcommand {\beamer@subsectionpages {25}{34}}}
\@writefile{nav}{\headcommand {\sectionentry {4}{Raspbian vs. GoKrazy}{35}{Raspbian vs. GoKrazy}{0}}}
\@writefile{toc}{\beamer@subsectionintoc {4}{1}{Aufbau}{35}{0}{4}}
\@writefile{nav}{\headcommand {\beamer@subsectionpages {35}{34}}}
\@writefile{nav}{\headcommand {\beamer@subsectionentry {0}{4}{1}{35}{Aufbau}}}
\@writefile{nav}{\headcommand {\slideentry {4}{1}{1}{35/35}{Aufbau}{0}}}
\@writefile{nav}{\headcommand {\beamer@framepages {35}{35}}}
\@writefile{toc}{\beamer@subsectionintoc {4}{2}{Perfomance}{36}{0}{4}}
\@writefile{nav}{\headcommand {\beamer@subsectionpages {35}{35}}}
\@writefile{nav}{\headcommand {\beamer@subsectionentry {0}{4}{2}{36}{Perfomance}}}
\@writefile{nav}{\headcommand {\slideentry {4}{2}{1}{36/38}{Perfomance}{0}}}
\@writefile{nav}{\headcommand {\beamer@framepages {36}{38}}}
\@writefile{toc}{\beamer@subsectionintoc {4}{3}{Stabilit\IeC {\"a}t \& Sicherheit}{39}{0}{4}}
\@writefile{nav}{\headcommand {\beamer@subsectionpages {36}{38}}}
\@writefile{nav}{\headcommand {\beamer@subsectionentry {0}{4}{3}{39}{Stabilit\IeC {\"a}t \& Sicherheit}}}
\@writefile{nav}{\headcommand {\slideentry {4}{3}{1}{39/40}{Stabilit\IeC {\"a}t \& Sicherheit}{0}}}
\@writefile{nav}{\headcommand {\beamer@framepages {39}{40}}}
\@writefile{toc}{\beamer@subsectionintoc {4}{4}{Ressourcenverbrauch}{41}{0}{4}}
\@writefile{nav}{\headcommand {\beamer@subsectionpages {39}{40}}}
\@writefile{nav}{\headcommand {\beamer@subsectionentry {0}{4}{4}{41}{Ressourcenverbrauch}}}
\@writefile{nav}{\headcommand {\slideentry {4}{4}{1}{41/42}{Ressourcenverbrauch}{0}}}
\@writefile{nav}{\headcommand {\beamer@framepages {41}{42}}}
\@writefile{toc}{\beamer@sectionintoc {5}{Fazit}{43}{0}{5}}
\@writefile{nav}{\headcommand {\beamer@sectionpages {35}{42}}}
\@writefile{nav}{\headcommand {\beamer@subsectionpages {41}{42}}}
\@writefile{nav}{\headcommand {\sectionentry {5}{Fazit}{43}{Fazit}{0}}}
\@writefile{nav}{\headcommand {\slideentry {5}{0}{1}{43/45}{}{0}}}
\@writefile{nav}{\headcommand {\beamer@framepages {43}{45}}}
\@writefile{nav}{\headcommand {\beamer@partpages {1}{45}}}
\@writefile{nav}{\headcommand {\beamer@subsectionpages {43}{45}}}
\@writefile{nav}{\headcommand {\beamer@sectionpages {43}{45}}}
\@writefile{nav}{\headcommand {\beamer@documentpages {45}}}
\@writefile{nav}{\headcommand {\gdef \inserttotalframenumber {38}}}
